module example.com

go 1.16

require (
	github.com/dgrijalva/jwt-go v3.2.0+incompatible
	github.com/go-sql-driver/mysql v1.5.0
	github.com/golang-migrate/migrate v3.5.4+incompatible
	github.com/gorilla/mux v1.8.0
	github.com/joho/godotenv v1.3.0
	github.com/lib/pq v1.10.0
	github.com/rs/cors v1.7.0 // indirect
	github.com/spf13/cobra v1.1.3
)
